
> eye@1.0.0 fire /srv/www/eye
> node src/app.js

listening on 8033
{ my: 'data' }
{ my: 'data' }
{ server: 'how is the server' }
{ manufacturer: 'Intel®',
  brand: 'Core™ i5-7267U',
  vendor: 'GenuineIntel',
  family: '6',
  model: '142',
  stepping: '9',
  revision: '',
  voltage: '',
  speed: '3.10',
  speedmin: '',
  speedmax: '',
  cores: 1,
  cache: { l1d: 32768, l1i: 32768, l2: 262144, l3: 4194304 } }
{ server: 'how is the server' }
{ manufacturer: 'Intel®',
  brand: 'Core™ i5-7267U',
  vendor: 'GenuineIntel',
  family: '6',
  model: '142',
  stepping: '9',
  revision: '',
  voltage: '',
  speed: '3.10',
  speedmin: '',
  speedmax: '',
  cores: 1,
  cache: { l1d: 32768, l1i: 32768, l2: 262144, l3: 4194304 } }
{ my: 'data' }
{ my: 'data' }
{ my: 'data' }
{ my: 'data' }
{ my: 'data' }
{ my: 'data' }
{ my: 'data' }
{ my: 'data' }
hello
{ manufacturer: 'Intel®',
  brand: 'Core™ i5-7267U',
  vendor: 'GenuineIntel',
  family: '6',
  model: '142',
  stepping: '9',
  revision: '',
  voltage: '',
  speed: '3.10',
  speedmin: '',
  speedmax: '',
  cores: 1,
  cache: { l1d: 32768, l1i: 32768, l2: 262144, l3: 4194304 } }
hello
{ manufacturer: 'Intel®',
  brand: 'Core™ i5-7267U',
  vendor: 'GenuineIntel',
  family: '6',
  model: '142',
  stepping: '9',
  revision: '',
  voltage: '',
  speed: '3.10',
  speedmin: '',
  speedmax: '',
  cores: 1,
  cache: { l1d: 32768, l1i: 32768, l2: 262144, l3: 4194304 } }
hello
{ manufacturer: 'Intel®',
  brand: 'Core™ i5-7267U',
  vendor: 'GenuineIntel',
  family: '6',
  model: '142',
  stepping: '9',
  revision: '',
  voltage: '',
  speed: '3.10',
  speedmin: '',
  speedmax: '',
  cores: 1,
  cache: { l1d: 32768, l1i: 32768, l2: 262144, l3: 4194304 } }
hello
{ manufacturer: 'Intel®',
  brand: 'Core™ i5-7267U',
  vendor: 'GenuineIntel',
  family: '6',
  model: '142',
  stepping: '9',
  revision: '',
  voltage: '',
  speed: '3.10',
  speedmin: '',
  speedmax: '',
  cores: 1,
  cache: { l1d: 32768, l1i: 32768, l2: 262144, l3: 4194304 } }
hello
{ manufacturer: 'Intel®',
  brand: 'Core™ i5-7267U',
  vendor: 'GenuineIntel',
  family: '6',
  model: '142',
  stepping: '9',
  revision: '',
  voltage: '',
  speed: '3.10',
  speedmin: '',
  speedmax: '',
  cores: 1,
  cache: { l1d: 32768, l1i: 32768, l2: 262144, l3: 4194304 } }
hello
{ manufacturer: 'Intel®',
  brand: 'Core™ i5-7267U',
  vendor: 'GenuineIntel',
  family: '6',
  model: '142',
  stepping: '9',
  revision: '',
  voltage: '',
  speed: '3.10',
  speedmin: '',
  speedmax: '',
  cores: 1,
  cache: { l1d: 32768, l1i: 32768, l2: 262144, l3: 4194304 } }
hello
{ manufacturer: 'Intel®',
  brand: 'Core™ i5-7267U',
  vendor: 'GenuineIntel',
  family: '6',
  model: '142',
  stepping: '9',
  revision: '',
  voltage: '',
  speed: '3.10',
  speedmin: '',
  speedmax: '',
  cores: 1,
  cache: { l1d: 32768, l1i: 32768, l2: 262144, l3: 4194304 } }
hello
{ manufacturer: 'Intel®',
  brand: 'Core™ i5-7267U',
  vendor: 'GenuineIntel',
  family: '6',
  model: '142',
  stepping: '9',
  revision: '',
  voltage: '',
  speed: '3.10',
  speedmin: '',
  speedmax: '',
  cores: 1,
  cache: { l1d: 32768, l1i: 32768, l2: 262144, l3: 4194304 } }
hello
{ manufacturer: 'Intel®',
  brand: 'Core™ i5-7267U',
  vendor: 'GenuineIntel',
  family: '6',
  model: '142',
  stepping: '9',
  revision: '',
  voltage: '',
  speed: '3.10',
  speedmin: '',
  speedmax: '',
  cores: 1,
  cache: { l1d: 32768, l1i: 32768, l2: 262144, l3: 4194304 } }
hello
{ manufacturer: 'Intel®',
  brand: 'Core™ i5-7267U',
  vendor: 'GenuineIntel',
  family: '6',
  model: '142',
  stepping: '9',
  revision: '',
  voltage: '',
  speed: '3.10',
  speedmin: '',
  speedmax: '',
  cores: 1,
  cache: { l1d: 32768, l1i: 32768, l2: 262144, l3: 4194304 } }
{ my: 'data' }
{ server: 'how is the server' }
{ manufacturer: 'Intel®',
  brand: 'Core™ i5-7267U',
  vendor: 'GenuineIntel',
  family: '6',
  model: '142',
  stepping: '9',
  revision: '',
  voltage: '',
  speed: '3.10',
  speedmin: '',
  speedmax: '',
  cores: 1,
  cache: { l1d: 32768, l1i: 32768, l2: 262144, l3: 4194304 } }
{ my: 'data' }
{ server: 'how is the server' }
{ manufacturer: 'Intel®',
  brand: 'Core™ i5-7267U',
  vendor: 'GenuineIntel',
  family: '6',
  model: '142',
  stepping: '9',
  revision: '',
  voltage: '',
  speed: '3.10',
  speedmin: '',
  speedmax: '',
  cores: 1,
  cache: { l1d: 32768, l1i: 32768, l2: 262144, l3: 4194304 } }
{ server: 'how is the server' }
{ manufacturer: 'Intel®',
  brand: 'Core™ i5-7267U',
  vendor: 'GenuineIntel',
  family: '6',
  model: '142',
  stepping: '9',
  revision: '',
  voltage: '',
  speed: '3.10',
  speedmin: '',
  speedmax: '',
  cores: 1,
  cache: { l1d: 32768, l1i: 32768, l2: 262144, l3: 4194304 } }
{ server: 'how is the server' }
{ manufacturer: 'Intel®',
  brand: 'Core™ i5-7267U',
  vendor: 'GenuineIntel',
  family: '6',
  model: '142',
  stepping: '9',
  revision: '',
  voltage: '',
  speed: '3.10',
  speedmin: '',
  speedmax: '',
  cores: 1,
  cache: { l1d: 32768, l1i: 32768, l2: 262144, l3: 4194304 } }
{ server: 'how is the server' }
{ manufacturer: 'Intel®',
  brand: 'Core™ i5-7267U',
  vendor: 'GenuineIntel',
  family: '6',
  model: '142',
  stepping: '9',
  revision: '',
  voltage: '',
  speed: '3.10',
  speedmin: '',
  speedmax: '',
  cores: 1,
  cache: { l1d: 32768, l1i: 32768, l2: 262144, l3: 4194304 } }
{ server: 'how is the server' }
{ manufacturer: 'Intel®',
  brand: 'Core™ i5-7267U',
  vendor: 'GenuineIntel',
  family: '6',
  model: '142',
  stepping: '9',
  revision: '',
  voltage: '',
  speed: '3.10',
  speedmin: '',
  speedmax: '',
  cores: 1,
  cache: { l1d: 32768, l1i: 32768, l2: 262144, l3: 4194304 } }
{ server: 'how is the server' }
{ manufacturer: 'Intel®',
  brand: 'Core™ i5-7267U',
  vendor: 'GenuineIntel',
  family: '6',
  model: '142',
  stepping: '9',
  revision: '',
  voltage: '',
  speed: '3.10',
  speedmin: '',
  speedmax: '',
  cores: 1,
  cache: { l1d: 32768, l1i: 32768, l2: 262144, l3: 4194304 } }
{ server: 'how is the server' }
{ manufacturer: 'Intel®',
  brand: 'Core™ i5-7267U',
  vendor: 'GenuineIntel',
  family: '6',
  model: '142',
  stepping: '9',
  revision: '',
  voltage: '',
  speed: '3.10',
  speedmin: '',
  speedmax: '',
  cores: 1,
  cache: { l1d: 32768, l1i: 32768, l2: 262144, l3: 4194304 } }
{ server: 'how is the server' }
{ manufacturer: 'Intel®',
  brand: 'Core™ i5-7267U',
  vendor: 'GenuineIntel',
  family: '6',
  model: '142',
  stepping: '9',
  revision: '',
  voltage: '',
  speed: '3.10',
  speedmin: '',
  speedmax: '',
  cores: 1,
  cache: { l1d: 32768, l1i: 32768, l2: 262144, l3: 4194304 } }
{ server: 'how is the server' }
{ manufacturer: 'Intel®',
  brand: 'Core™ i5-7267U',
  vendor: 'GenuineIntel',
  family: '6',
  model: '142',
  stepping: '9',
  revision: '',
  voltage: '',
  speed: '3.10',
  speedmin: '',
  speedmax: '',
  cores: 1,
  cache: { l1d: 32768, l1i: 32768, l2: 262144, l3: 4194304 } }
{ server: 'how is the server' }
{ manufacturer: 'Intel®',
  brand: 'Core™ i5-7267U',
  vendor: 'GenuineIntel',
  family: '6',
  model: '142',
  stepping: '9',
  revision: '',
  voltage: '',
  speed: '3.10',
  speedmin: '',
  speedmax: '',
  cores: 1,
  cache: { l1d: 32768, l1i: 32768, l2: 262144, l3: 4194304 } }
{ server: 'how is the server' }
{ manufacturer: 'Intel®',
  brand: 'Core™ i5-7267U',
  vendor: 'GenuineIntel',
  family: '6',
  model: '142',
  stepping: '9',
  revision: '',
  voltage: '',
  speed: '3.10',
  speedmin: '',
  speedmax: '',
  cores: 1,
  cache: { l1d: 32768, l1i: 32768, l2: 262144, l3: 4194304 } }
{ server: 'how is the server' }
{ manufacturer: 'Intel®',
  brand: 'Core™ i5-7267U',
  vendor: 'GenuineIntel',
  family: '6',
  model: '142',
  stepping: '9',
  revision: '',
  voltage: '',
  speed: '3.10',
  speedmin: '',
  speedmax: '',
  cores: 1,
  cache: { l1d: 32768, l1i: 32768, l2: 262144, l3: 4194304 } }
{ server: 'how is the server' }
{ manufacturer: 'Intel®',
  brand: 'Core™ i5-7267U',
  vendor: 'GenuineIntel',
  family: '6',
  model: '142',
  stepping: '9',
  revision: '',
  voltage: '',
  speed: '3.10',
  speedmin: '',
  speedmax: '',
  cores: 1,
  cache: { l1d: 32768, l1i: 32768, l2: 262144, l3: 4194304 } }
{ server: 'how is the server' }
{ manufacturer: 'Intel®',
  brand: 'Core™ i5-7267U',
  vendor: 'GenuineIntel',
  family: '6',
  model: '142',
  stepping: '9',
  revision: '',
  voltage: '',
  speed: '3.10',
  speedmin: '',
  speedmax: '',
  cores: 1,
  cache: { l1d: 32768, l1i: 32768, l2: 262144, l3: 4194304 } }
{ server: 'how is the server' }
{ manufacturer: 'Intel®',
  brand: 'Core™ i5-7267U',
  vendor: 'GenuineIntel',
  family: '6',
  model: '142',
  stepping: '9',
  revision: '',
  voltage: '',
  speed: '3.10',
  speedmin: '',
  speedmax: '',
  cores: 1,
  cache: { l1d: 32768, l1i: 32768, l2: 262144, l3: 4194304 } }
{ server: 'how is the server' }
{ manufacturer: 'Intel®',
  brand: 'Core™ i5-7267U',
  vendor: 'GenuineIntel',
  family: '6',
  model: '142',
  stepping: '9',
  revision: '',
  voltage: '',
  speed: '3.10',
  speedmin: '',
  speedmax: '',
  cores: 1,
  cache: { l1d: 32768, l1i: 32768, l2: 262144, l3: 4194304 } }
{ server: 'how is the server' }
{ manufacturer: 'Intel®',
  brand: 'Core™ i5-7267U',
  vendor: 'GenuineIntel',
  family: '6',
  model: '142',
  stepping: '9',
  revision: '',
  voltage: '',
  speed: '3.10',
  speedmin: '',
  speedmax: '',
  cores: 1,
  cache: { l1d: 32768, l1i: 32768, l2: 262144, l3: 4194304 } }
{ server: 'how is the server' }
{ manufacturer: 'Intel®',
  brand: 'Core™ i5-7267U',
  vendor: 'GenuineIntel',
  family: '6',
  model: '142',
  stepping: '9',
  revision: '',
  voltage: '',
  speed: '3.10',
  speedmin: '',
  speedmax: '',
  cores: 1,
  cache: { l1d: 32768, l1i: 32768, l2: 262144, l3: 4194304 } }
{ server: 'how is the server' }
{ manufacturer: 'Intel®',
  brand: 'Core™ i5-7267U',
  vendor: 'GenuineIntel',
  family: '6',
  model: '142',
  stepping: '9',
  revision: '',
  voltage: '',
  speed: '3.10',
  speedmin: '',
  speedmax: '',
  cores: 1,
  cache: { l1d: 32768, l1i: 32768, l2: 262144, l3: 4194304 } }
{ server: 'how is the server' }
{ manufacturer: 'Intel®',
  brand: 'Core™ i5-7267U',
  vendor: 'GenuineIntel',
  family: '6',
  model: '142',
  stepping: '9',
  revision: '',
  voltage: '',
  speed: '3.10',
  speedmin: '',
  speedmax: '',
  cores: 1,
  cache: { l1d: 32768, l1i: 32768, l2: 262144, l3: 4194304 } }
{ server: 'how is the server' }
{ manufacturer: 'Intel®',
  brand: 'Core™ i5-7267U',
  vendor: 'GenuineIntel',
  family: '6',
  model: '142',
  stepping: '9',
  revision: '',
  voltage: '',
  speed: '3.10',
  speedmin: '',
  speedmax: '',
  cores: 1,
  cache: { l1d: 32768, l1i: 32768, l2: 262144, l3: 4194304 } }
{ server: 'how is the server' }
{ manufacturer: 'Intel®',
  brand: 'Core™ i5-7267U',
  vendor: 'GenuineIntel',
  family: '6',
  model: '142',
  stepping: '9',
  revision: '',
  voltage: '',
  speed: '3.10',
  speedmin: '',
  speedmax: '',
  cores: 1,
  cache: { l1d: 32768, l1i: 32768, l2: 262144, l3: 4194304 } }
Terminated
npm ERR! code ELIFECYCLE
npm ERR! errno 143
npm ERR! eye@1.0.0 fire: `node src/app.js`
npm ERR! Exit status 143
npm ERR! 
npm ERR! Failed at the eye@1.0.0 fire script.
npm ERR! This is probably not a problem with npm. There is likely additional logging output above.

npm ERR! A complete log of this run can be found in:
npm ERR!     /home/vagrant/.npm/_logs/2018-10-04T20_13_59_659Z-debug.log
